{
    "count": 14,
    "next": "http://127.0.0.1:8000/api/catalogs/1/content/?page=2&version=v3",
    "previous": null,
    "results": [
        {
            "id": 10,
            "code": "A",
            "value": "Пищеварительный тракт и обмен веществ"
        },
        {
            "id": 11,
            "code": "B",
            "value": "Кровь и система кроветворения"
        },
        {
            "id": 12,
            "code": "C",
            "value": "Сердечно-сосудистая система"
        }
    ]
}